…
## Graph 1

 For this map i took the star wars data set which had the variables name, height, mass, hair color, skin color, eye color, birth year, sex , gender, homeworld, species, films, vehicles and starships.

 My intent in this graph was to find out which all species have lived on the planet of Naboo. 
 

```
## # A tibble: 87 x 14
##    name    height  mass hair_color  skin_color eye_color birth_year sex   gender
##    <chr>    <int> <dbl> <chr>       <chr>      <chr>          <dbl> <chr> <chr> 
##  1 Luke S~    172    77 blond       fair       blue            19   male  mascu~
##  2 C-3PO      167    75 <NA>        gold       yellow         112   none  mascu~
##  3 R2-D2       96    32 <NA>        white, bl~ red             33   none  mascu~
##  4 Darth ~    202   136 none        white      yellow          41.9 male  mascu~
##  5 Leia O~    150    49 brown       light      brown           19   fema~ femin~
##  6 Owen L~    178   120 brown, grey light      blue            52   male  mascu~
##  7 Beru W~    165    75 brown       light      blue            47   fema~ femin~
##  8 R5-D4       97    32 <NA>        white, red red             NA   none  mascu~
##  9 Biggs ~    183    84 black       light      brown           24   male  mascu~
## 10 Obi-Wa~    182    77 auburn, wh~ fair       blue-gray       57   male  mascu~
## # ... with 77 more rows, and 5 more variables: homeworld <chr>, species <chr>,
## #   films <list>, vehicles <list>, starships <list>
```
…
<<<<<<< .merge_file_a10424
=======


## Introduction to Graph 1

###For this map i took the star wars data set which had the variables name, height, mass, hair color, skin color, eye color, birth year, sex , gender, homeworld, species, films, vehicles and starships.

###My intent in this graph was to find out which all species have lived on the planet of Naboo. 


```
## # A tibble: 87 x 14
##    name    height  mass hair_color  skin_color eye_color birth_year sex   gender
##    <chr>    <int> <dbl> <chr>       <chr>      <chr>          <dbl> <chr> <chr> 
##  1 Luke S~    172    77 blond       fair       blue            19   male  mascu~
##  2 C-3PO      167    75 <NA>        gold       yellow         112   none  mascu~
##  3 R2-D2       96    32 <NA>        white, bl~ red             33   none  mascu~
##  4 Darth ~    202   136 none        white      yellow          41.9 male  mascu~
##  5 Leia O~    150    49 brown       light      brown           19   fema~ femin~
##  6 Owen L~    178   120 brown, grey light      blue            52   male  mascu~
##  7 Beru W~    165    75 brown       light      blue            47   fema~ femin~
##  8 R5-D4       97    32 <NA>        white, red red             NA   none  mascu~
##  9 Biggs ~    183    84 black       light      brown           24   male  mascu~
## 10 Obi-Wa~    182    77 auburn, wh~ fair       blue-gray       57   male  mascu~
## # ... with 77 more rows, and 5 more variables: homeworld <chr>, species <chr>,
## #   films <list>, vehicles <list>, starships <list>
```
…
=======

<img src="unnamed-chunk-4-1.png" width="480" />

## Introduction to Graph 3.

### In this assignment we were told to make a csv file with our own dataset on a particular episode of a particular tv show, movie, book, etc. I chose the show **Blood Of Zeus** which is on Netflix as that was the last show i watched during the holidays. 

### The graph bellow shows us the number of characters, the race of the characters and the weight of dialogues between the characters. The variables for this graph were *Name, Sex, Race, Eye colour, Hair colour, Status and Dialogue weight*.
>>>>>>> .merge_file_a10556



```
## # A tibble: 22 x 4
##     From    To Weight Type      
##    <dbl> <dbl>  <dbl> <chr>     
##  1     3    16      3 Associates
##  2    13     6      1 Family    
##  3     1    13      6 Brothers  
##  4     1    17      4 Family    
##  5     6     1      7 Family    
##  6     2     6      5 Brothers  
##  7     1     2     17 Family    
##  8     7     2      2 Brothers  
##  9    10     2      1 Friends   
## 10     9     2      1 Friends   
## # ... with 12 more rows
```
…
