…
------------------------------------------------------------------------

<br>

## **Height and Weight of the Heroes along with their Hair colour**






```
## # A tibble: 817 x 25
##     ...1 name          Gender Eyecolor Race  Haircolor Height Publisher Skincolor
##    <dbl> <chr>         <chr>  <chr>    <chr> <chr>      <dbl> <chr>     <chr>    
##  1     0 A-Bomb        Male   yellow   Human No Hair      203 Marvel C~ -        
##  2     1 Abe Sapien    Male   blue     Icth~ No Hair      191 Dark Hor~ blue     
##  3     2 Abin Sur      Male   blue     Unga~ No Hair      185 DC Comics red      
##  4     3 Abomination   Male   green    Huma~ No Hair      203 Marvel C~ -        
##  5     4 Abraxas       Male   blue     Cosm~ Black        -99 Marvel C~ -        
##  6     5 Absorbing Man Male   blue     Human No Hair      193 Marvel C~ -        
##  7     6 Adam Monroe   Male   blue     -     Blond        -99 NBC - He~ -        
##  8     7 Adam Strange  Male   blue     Human Blond        185 DC Comics -        
##  9     8 Agent 13      Female blue     -     Blond        173 Marvel C~ -        
## 10     9 Agent Bob     Male   brown    Human Brown        178 Marvel C~ -        
## # ... with 807 more rows, and 16 more variables: Alignment <chr>, Weight <dbl>,
## #   intelligence <chr>, strength <chr>, speed <chr>, durability <chr>,
## #   power <chr>, combat <chr>, mindcontrol <chr>, mattermanipulation <chr>,
## #   telepathy <chr>, telekinesis <chr>, shapeshifting <chr>, timetravel <chr>,
## #   elementcontrol <chr>, sizechanging <chr>
```
…
```
## # A tibble: 30 x 13
##    name      id realname sex   race  birthyear sign  playedby height Citizenship
##    <chr>  <dbl> <chr>    <chr> <chr>     <dbl> <chr> <chr>    <chr>  <chr>      
##  1 Homel~     1 John     Male  White      1975 Scor~ Antony ~ 180 cm American   
##  2 Starl~     2 Annie J~ Fema~ White      1994 Canc~ Erin Mo~ 168 cm American   
##  3 Billy~     3 William~ Male  White      1972 Gemi~ Karl Ur~ 185 cm British    
##  4 Hughi~     4 Hugh Ca~ Male  White      1992 Taur~ Jack Qu~ 185 cm American   
##  5 Black~     5 <NA>     Male  Black      1988 Sagi~ Nathan ~ 188 cm American   
##  6 Trans~     6 <NA>     Male  White      1980 Libra Alex Ha~ 176 cm American   
##  7 Frenc~     7 Serge    Male  White      1985 Canc~ Tomer K~ 179 cm French Alg~
##  8 Storm~     8 Klara R~ Fema~ White      1982 Canc~ Aya Cash 154 cm Nazi German
##  9 The D~     9 Kevin M~ Male  White      1985 Canc~ Chace C~ 178 cm American   
## 10 Mothe~    10 Marvin ~ Male  Black      1974 Aries Laz Alo~ 182 cm American   
## # ... with 20 more rows, and 3 more variables: status <chr>, Species <chr>,
## #   Affiliation <chr>
```

```
## # A tibble: 73 x 4
##    from       to                weight type        
##    <chr>      <chr>              <dbl> <chr>       
##  1 Homelander Starlight              3 Professional
##  2 Homelander Billy Butcher          1 Enemy       
##  3 Homelander The Deep               4 Competition 
##  4 Homelander Madelyn Stillwell      5 Benefits    
##  5 Homelander Queen Maeve            2 Friends     
##  6 Homelander A-Train                3 Competition 
##  7 Homelander Ashley Barrett         3 Professional
##  8 Homelander Black Noir             2 Professional
##  9 Starlight  Billy Butcher          1 Friends     
## 10 Starlight  Hughie Campbell        6 Benefits    
## # ... with 63 more rows
```
…
