…
```r
mh_edges
```

```
## # A tibble: 48 × 4
##    From      To        Weight Type                    
##    <chr>     <chr>      <dbl> <chr>                   
##  1 Professor Tokyo         13 Guardian Angel          
##  2 Professor Berlin        21 Right Hand              
##  3 Professor Denver        10 Acquaintances           
##  4 Professor Moscow         8 Acquaintances           
##  5 Denver    Moscow         5 Son                     
##  6 Helsinki  Oslo           4 Twins                   
##  7 Oslo      Professor      1 Soldier                 
##  8 Nairobi   Professor      4 Quality Control  Manager
##  9 Rio       Professor      5 Coding                  
## 10 Helsinki  Professor      3 Soldier                 
## # … with 38 more rows
```
…
