…
```
## # A tibble: 21 x 5
##     from    to weightage relationship relationship_changed
##    <dbl> <dbl>     <dbl> <chr>        <chr>               
##  1     1     2         1 <NA>         <NA>                
##  2     1     3        15 Professional Professional        
##  3     1     4        20 Competition  Close Friend        
##  4     1    11         4 <NA>         <NA>                
##  5     1     9         1 Stranger     Friend              
##  6     1     6        32 Best Friend  Best Friend         
##  7     1    12         5 Professional Romantic            
##  8     1    13         3 <NA>         <NA>                
##  9     1    14         4 <NA>         <NA>                
## 10     1    15         1 <NA>         <NA>                
## # ... with 11 more rows
```
…
```
## # A tibble: 21 x 5
##     from    to weightage relationship relationship_changed
##    <dbl> <dbl>     <dbl> <chr>        <chr>               
##  1     1     2         1 <NA>         <NA>                
##  2     1     3        15 Professional Professional        
##  3     1     4        20 Competition  Close Friend        
##  4     1    11         4 <NA>         <NA>                
##  5     1     9         1 Stranger     Friend              
##  6     1     6        32 Best Friend  Best Friend         
##  7     1    12         5 Professional Romantic            
##  8     1    13         3 <NA>         <NA>                
##  9     1    14         4 <NA>         <NA>                
## 10     1    15         1 <NA>         <NA>                
## # ... with 11 more rows
```
…
```
## # A tibble: 21 x 5
##     from    to weightage relationship relationship_changed
##    <dbl> <dbl>     <dbl> <chr>        <chr>               
##  1     1     2         1 <NA>         <NA>                
##  2     1     3        15 Professional Professional        
##  3     1     4        20 Competition  Close Friend        
##  4     1    11         4 <NA>         <NA>                
##  5     1     9         1 Stranger     Friend              
##  6     1     6        32 Best Friend  Best Friend         
##  7     1    12         5 Professional Romantic            
##  8     1    13         3 <NA>         <NA>                
##  9     1    14         4 <NA>         <NA>                
## 10     1    15         1 <NA>         <NA>                
## # ... with 11 more rows
```
…
