…
```r
familyguy_edges
```

```
## # A tibble: 60 x 4
##    To          From          Weight Type      
##    <chr>       <chr>          <dbl> <chr>     
##  1 Peter       Quagmire           5 friends   
##  2 Lois        Peter             10 family    
##  3 Chris       Meg                8 family    
##  4 flintstones cops               1 gag       
##  5 Chris       Peter              8 family    
##  6 Peter       Ronald Raegan      5 gag       
##  7 Quagmire    Peter              5 friends   
##  8 Stewie      Brian              9 family    
##  9 Stewie      clone              2 experiment
## 10 Brian       clone              1 experiment
## # ... with 50 more rows
```
…
```r
familyguy_edges
```

```
## # A tibble: 60 x 4
##    To          From          Weight Type      
##    <chr>       <chr>          <dbl> <chr>     
##  1 Peter       Quagmire           5 friends   
##  2 Lois        Peter             10 family    
##  3 Chris       Meg                8 family    
##  4 flintstones cops               1 gag       
##  5 Chris       Peter              8 family    
##  6 Peter       Ronald Raegan      5 gag       
##  7 Quagmire    Peter              5 friends   
##  8 Stewie      Brian              9 family    
##  9 Stewie      clone              2 experiment
## 10 Brian       clone              1 experiment
## # ... with 50 more rows
```
…
```r
familyguy_edges_vis <- familyguy_edges %>% 
  select(From, To) %>% 
  left_join(., familyguy_nodes_vis, by = c("From" = "label")) %>% 
  left_join(., familyguy_nodes_vis, by = c("To" = "label")) %>%
  select("From"= id.x, "To" = id.y) %>% 
  rename("to" = To, "from"= From)

familyguy_edges_vis
```

```
## # A tibble: 60 x 2
##     from    to
##    <int> <int>
##  1     8     3
##  2     3     1
##  3     6     5
##  4    19    18
##  5     3     5
##  6     7     3
##  7     3     8
##  8     2     4
##  9    11     4
## 10    11     2
## # ... with 50 more rows
```
…
