…
## 
## -- Column specification --------------------------------------------------------
## cols(
##   name = col_character(),
##   sex = col_character(),
##   race = col_character(),
##   birthyear = col_double(),
##   position = col_character(),
##   haircolour = col_character(),
##   sign = col_character()
## )

hillhouse_nodes

## # A tibble: 24 x 7
##    name                      sex   race  birthyear position haircolour sign    
##    <chr>                     <chr> <chr>     <dbl> <chr>    <chr>      <chr>   
##  1 Eleanor Crain Vance       F     White      1986 Daughter brown      Pisces  
##  2 Theodora Crain            F     White      1982 Daughter brownblack Libra   
##  3 Hugh Desmond Lester Crain M     White      1959 Father   brownblack Aquarius
##  4 Olivia Crain              F     White      1982 Mother   brownblack Virgo   
##  5 Shirley Crain Harris      F     White      1980 Daughter brown      Aquarius
##  6 Steven Crain              M     White      1979 Son      brown      Aries   
##  7 Luke Crain                M     White      1986 Son      brownblack Pisces  
##  8 Poppy Hill                F     White        NA Ghost    Burgundy   <NA>    
##  9 Clara Dudley              F     White        NA Maid     black      <NA>    
## 10 Kevin Harris              M     White      1975 Other    black      <NA>    
## # ... with 14 more rows
…
