…
```
## # A tibble: 21 × 4
##     from    to weight type  
##    <dbl> <dbl>  <dbl> <chr> 
##  1     1     2     31 family
##  2     4     4      1 self  
##  3     3    12      4 family
##  4     5    15      9 friend
##  5     5     4     28 family
##  6     1    13     27 family
##  7     2    13     21 family
##  8     5    16     11 work  
##  9     3     6     19 family
## 10     6    12      2 family
## # … with 11 more rows
```
…
